{
  "content": [
    {
      "id": 1,
      "brewery": {
        "id": 812,
        "name": "Magic Hat",
        "address1": "5 Bartlett Bay Road",
        "address2": "",
        "city": "South Burlington",
        "state": "Vermont",
        "code": "5403",
        "country": "United States",
        "phone": "1-802-658-2739",
        "website": "http://www.magichat.net/",
        "filepath": "",
        "descript": "Burlington microbrewers of Humble Patience, Fat Angel, #9, Blind Faith IPA, and Heart of Darkness Oatmeal Stout.",
        "addUser": 0,
        "lastMod": "2010-07-22T20:00:20"
      },
      "name": "Hocus Pocus",
      "catId": 11,
      "styleId": 116,
      "abv": 4.5,
      "ibu": 0.0,
      "srm": 0.0,
      "upc": 0,
      "filepath": "",
      "descript": "Our take on a classic summer ale.  A toast to weeds, rays, and summer haze.  A light, crisp ale for mowing lawns, hitting lazy fly balls, and communing with nature, Hocus Pocus is offered up as a summer sacrifice to clodless days.\r\n\r\nIts malty sweetness finishes tart and crisp and is best apprediated with a wedge of orange.",
      "addUser": 0,
      "lastMod": "2010-07-22T20:00:20"
    },
    {
      "id": 2,
      "brewery": {
        "id": 264,
        "name": "Brouwerij Alken-Maes",
        "address1": "Rue Derbque 7",
        "address2": "",
        "city": "Jumet",
        "state": "Hainaut",
        "code": "",
        "country": "Belgium",
        "phone": "32-071-34-02-22",
        "website": "",
        "filepath": "",
        "descript": "",
        "addUser": 0,
        "lastMod": "2010-07-22T20:00:20"
      },
      "name": "Grimbergen Blonde",
      "catId": -1,
      "styleId": -1,
      "abv": 6.7,
      "ibu": 0.0,
      "srm": 0.0,
      "upc": 0,
      "filepath": "",
      "descript": "",
      "addUser": 0,
      "lastMod": "2010-07-22T20:00:20"
    },
    {
      "id": 3,
      "brewery": {
        "id": 779,
        "name": "Left Hand Brewing Company",
        "address1": "1265 Boston Avenue",
        "address2": "",
        "city": "Longmont",
        "state": "Colorado",
        "code": "80501",
        "country": "United States",
        "phone": "1-303-772-0258",
        "website": "http://www.lefthandbrewing.com/",
        "filepath": "",
        "descript": "",
        "addUser": 0,
        "lastMod": "2010-07-22T20:00:20"
      },
      "name": "Widdershins Barleywine",
      "catId": -1,
      "styleId": -1,
      "abv": 9.1,
      "ibu": 0.0,
      "srm": 0.0,
      "upc": 0,
      "filepath": "",
      "descript": "",
      "addUser": 0,
      "lastMod": "2010-07-22T20:00:20"
    },
    {
      "id": 4,
      "brewery": {
        "id": 287,
        "name": "Brouwerij Liefmans",
        "address1": "200 Aalststraat",
        "address2": "",
        "city": "Oudenaarde",
        "state": "Oost-Vlaanderen",
        "code": "",
        "country": "Belgium",
        "phone": "32-055-31-13-92",
        "website": "http://www.liefmans.be/",
        "filepath": "",
        "descript": "",
        "addUser": 0,
        "lastMod": "2010-07-22T20:00:20"
      },
      "name": "Lucifer",
      "catId": -1,
      "styleId": -1,
      "abv": 8.5,
      "ibu": 0.0,
      "srm": 0.0,
      "upc": 0,
      "filepath": "",
      "descript": "",
      "addUser": 0,
      "lastMod": "2010-07-22T20:00:20"
    },
    {
      "id": 5,
      "brewery": {
        "id": 1056,
        "name": "Ridgeway Brewing",
        "address1": "6 Chapel Close",
        "address2": "",
        "city": "South Stoke",
        "state": "Oxford",
        "code": "",
        "country": "United Kingdom",
        "phone": "44-(01491)-873474",
        "website": "",
        "filepath": "",
        "descript": "",
        "addUser": 0,
        "lastMod": "2010-07-22T20:00:20"
      },
      "name": "Bitter",
      "catId": -1,
      "styleId": -1,
      "abv": 4.0,
      "ibu": 0.0,
      "srm": 0.0,
      "upc": 0,
      "filepath": "",
      "descript": "",
      "addUser": 0,
      "lastMod": "2010-07-22T20:00:20"
    },
    {
      "id": 6,
      "brewery": {
        "id": 1385,
        "name": "Youngs & Company Brewery",
        "address1": "26 Osiers Road",
        "address2": "Wandsworth",
        "city": "London",
        "state": "",
        "code": "SW18 1NH",
        "country": "England",
        "phone": "020 8875 7000",
        "website": "http://www.youngs.co.uk",
        "filepath": "",
        "descript": "",
        "addUser": 1,
        "lastMod": "2010-07-22T20:00:20"
      },
      "name": "Winter Warmer",
      "catId": 1,
      "styleId": 13,
      "abv": 5.2,
      "ibu": 0.0,
      "srm": 0.0,
      "upc": 0,
      "filepath": "",
      "descript": "",
      "addUser": 0,
      "lastMod": "2010-07-22T20:00:20"
    },
    {
      "id": 7,
      "brewery": {
        "id": 1099,
        "name": "Samuel Smith Old Brewery (Tadcaster)",
        "address1": "High Street",
        "address2": "",
        "city": "Tadcaster",
        "state": "North Yorkshire",
        "code": "",
        "country": "United Kingdom",
        "phone": "44-(01937)-839201",
        "website": "",
        "filepath": "",
        "descript": "",
        "addUser": 0,
        "lastMod": "2010-07-22T20:00:20"
      },
      "name": "Winter Welcome 2007-2008",
      "catId": -1,
      "styleId": -1,
      "abv": 6.0,
      "ibu": 0.0,
      "srm": 0.0,
      "upc": 0,
      "filepath": "",
      "descript": "",
      "addUser": 0,
      "lastMod": "2010-07-22T20:00:20"
    },
    {
      "id": 8,
      "brewery": {
        "id": 1099,
        "name": "Samuel Smith Old Brewery (Tadcaster)",
        "address1": "High Street",
        "address2": "",
        "city": "Tadcaster",
        "state": "North Yorkshire",
        "code": "",
        "country": "United Kingdom",
        "phone": "44-(01937)-839201",
        "website": "",
        "filepath": "",
        "descript": "",
        "addUser": 0,
        "lastMod": "2010-07-22T20:00:20"
      },
      "name": "Oatmeal Stout",
      "catId": 3,
      "styleId": 42,
      "abv": 5.0,
      "ibu": 0.0,
      "srm": 0.0,
      "upc": 0,
      "filepath": "",
      "descript": "",
      "addUser": 0,
      "lastMod": "2010-07-22T20:00:20"
    },
    {
      "id": 9,
      "brewery": {
        "id": 501,
        "name": "Empyrean Brewing Company",
        "address1": "729 Q Street",
        "address2": "",
        "city": "Lincoln",
        "state": "Nebraska",
        "code": "68508",
        "country": "United States",
        "phone": "1-402-434-5959",
        "website": "",
        "filepath": "",
        "descript": "",
        "addUser": 0,
        "lastMod": "2010-07-22T20:00:20"
      },
      "name": "Espresso Porter",
      "catId": -1,
      "styleId": -1,
      "abv": 0.0,
      "ibu": 0.0,
      "srm": 0.0,
      "upc": 0,
      "filepath": "",
      "descript": "",
      "addUser": 0,
      "lastMod": "2010-07-22T20:00:20"
    },
    {
      "id": 10,
      "brewery": {
        "id": 545,
        "name": "Fort Collins Brewery",
        "address1": "1900-B East Lincoln Avenue",
        "address2": "",
        "city": "Fort Collins",
        "state": "Colorado",
        "code": "80524",
        "country": "United States",
        "phone": "1-970-472-1499",
        "website": "http://www.fortcollinsbrewery.com",
        "filepath": "",
        "descript": "",
        "addUser": 0,
        "lastMod": "2010-07-22T20:00:20"
      },
      "name": "Chocolate Stout",
      "catId": 3,
      "styleId": 42,
      "abv": 0.0,
      "ibu": 0.0,
      "srm": 0.0,
      "upc": 0,
      "filepath": "",
      "descript": "",
      "addUser": 0,
      "lastMod": "2010-07-22T20:00:20"
    },
    {
      "id": 11,
      "brewery": {
        "id": 742,
        "name": "Kiuchi Shuzou Goushi Kaisya",
        "address1": "1257, Kounsosu",
        "address2": "",
        "city": "Ibaraki",
        "state": "Kanto",
        "code": "",
        "country": "Japan",
        "phone": "81-029-298-0105",
        "website": "",
        "filepath": "",
        "descript": "",
        "addUser": 0,
        "lastMod": "2010-07-22T20:00:20"
      },
      "name": "Hitachino Nest Real Ginger Brew",
      "catId": -1,
      "styleId": -1,
      "abv": 7.0,
      "ibu": 0.0,
      "srm": 0.0,
      "upc": 0,
      "filepath": "",
      "descript": "",
      "addUser": 0,
      "lastMod": "2010-07-22T20:00:20"
    },
    {
      "id": 12,
      "brewery": {
        "id": 779,
        "name": "Left Hand Brewing Company",
        "address1": "1265 Boston Avenue",
        "address2": "",
        "city": "Longmont",
        "state": "Colorado",
        "code": "80501",
        "country": "United States",
        "phone": "1-303-772-0258",
        "website": "http://www.lefthandbrewing.com/",
        "filepath": "",
        "descript": "",
        "addUser": 0,
        "lastMod": "2010-07-22T20:00:20"
      },
      "name": "JuJu Ginger",
      "catId": -1,
      "styleId": -1,
      "abv": 4.0,
      "ibu": 0.0,
      "srm": 0.0,
      "upc": 0,
      "filepath": "",
      "descript": "",
      "addUser": 0,
      "lastMod": "2010-07-22T20:00:20"
    },
    {
      "id": 13,
      "brewery": {
        "id": 545,
        "name": "Fort Collins Brewery",
        "address1": "1900-B East Lincoln Avenue",
        "address2": "",
        "city": "Fort Collins",
        "state": "Colorado",
        "code": "80524",
        "country": "United States",
        "phone": "1-970-472-1499",
        "website": "http://www.fortcollinsbrewery.com",
        "filepath": "",
        "descript": "",
        "addUser": 0,
        "lastMod": "2010-07-22T20:00:20"
      },
      "name": "The Kidd Lager",
      "catId": 7,
      "styleId": 86,
      "abv": 0.0,
      "ibu": 0.0,
      "srm": 0.0,
      "upc": 0,
      "filepath": "",
      "descript": "",
      "addUser": 0,
      "lastMod": "2010-07-22T20:00:20"
    },
    {
      "id": 14,
      "brewery": {
        "id": 1099,
        "name": "Samuel Smith Old Brewery (Tadcaster)",
        "address1": "High Street",
        "address2": "",
        "city": "Tadcaster",
        "state": "North Yorkshire",
        "code": "",
        "country": "United Kingdom",
        "phone": "44-(01937)-839201",
        "website": "",
        "filepath": "",
        "descript": "",
        "addUser": 0,
        "lastMod": "2010-07-22T20:00:20"
      },
      "name": "Imperial Stout",
      "catId": 3,
      "styleId": 42,
      "abv": 7.0,
      "ibu": 0.0,
      "srm": 0.0,
      "upc": 0,
      "filepath": "",
      "descript": "",
      "addUser": 0,
      "lastMod": "2010-07-22T20:00:20"
    },
    {
      "id": 15,
      "brewery": {
        "id": 1315,
        "name": "Upstream Brewing Company at Legacy",
        "address1": "17070 Wright Plaza",
        "address2": "",
        "city": "Omaha",
        "state": "Nebraska",
        "code": "68130",
        "country": "United States",
        "phone": "1-402-778-0100",
        "website": "",
        "filepath": "",
        "descript": "",
        "addUser": 0,
        "lastMod": "2010-07-22T20:00:20"
      },
      "name": "Oak-Aged Belgian Tripel",
      "catId": -1,
      "styleId": -1,
      "abv": 9.0,
      "ibu": 0.0,
      "srm": 0.0,
      "upc": 0,
      "filepath": "",
      "descript": "",
      "addUser": 0,
      "lastMod": "2010-07-22T20:00:20"
    },
    {
      "id": 16,
      "brewery": {
        "id": 168,
        "name": "Brasserie d'Ecaussinnes",
        "address1": "rue Restaumont, 118",
        "address2": "",
        "city": "Ecaussinnes",
        "state": "Hainaut",
        "code": "",
        "country": "Belgium",
        "phone": "32-067-/-34-22-77",
        "website": "",
        "filepath": "",
        "descript": "",
        "addUser": 0,
        "lastMod": "2010-07-22T20:00:20"
      },
      "name": "Ultrablonde",
      "catId": -1,
      "styleId": -1,
      "abv": 8.0,
      "ibu": 0.0,
      "srm": 0.0,
      "upc": 0,
      "filepath": "",
      "descript": "",
      "addUser": 0,
      "lastMod": "2010-07-22T20:00:20"
    },
    {
      "id": 17,
      "brewery": {
        "id": 1023,
        "name": "Private Weissbierbrauerei G. Schneider & Sohn GmbH",
        "address1": "Emil-Ott-Strasse 1-5",
        "address2": "",
        "city": "Kelheim",
        "state": "",
        "code": "93309",
        "country": "Germany",
        "phone": "0 94 41 / 7 05 - 0",
        "website": "http://www.schneider-weisse.de",
        "filepath": "",
        "descript": "",
        "addUser": 0,
        "lastMod": "2010-07-22T20:00:20"
      },
      "name": "Wiesen Edel Weisse",
      "catId": 4,
      "styleId": 50,
      "abv": 6.2,
      "ibu": 0.0,
      "srm": 0.0,
      "upc": 0,
      "filepath": "",
      "descript": "",
      "addUser": 0,
      "lastMod": "2010-07-22T20:00:20"
    },
    {
      "id": 18,
      "brewery": {
        "id": 39,
        "name": "Anchor Brewing",
        "address1": "1705 Mariposa Street",
        "address2": "",
        "city": "San Francisco",
        "state": "California",
        "code": "94107",
        "country": "United States",
        "phone": "1-415-863-8350",
        "website": "",
        "filepath": "",
        "descript": "",
        "addUser": 0,
        "lastMod": "2010-07-22T20:00:20"
      },
      "name": "Old Foghorn 2001",
      "catId": -1,
      "styleId": -1,
      "abv": 10.0,
      "ibu": 0.0,
      "srm": 0.0,
      "upc": 0,
      "filepath": "",
      "descript": "",
      "addUser": 0,
      "lastMod": "2010-07-22T20:00:20"
    },
    {
      "id": 19,
      "brewery": {
        "id": 196,
        "name": "Brasserie La Choulette",
        "address1": "16 rue des Ecoles",
        "address2": "",
        "city": "Hordain",
        "state": "",
        "code": "",
        "country": "France",
        "phone": "33-03.27.35.72.44",
        "website": "",
        "filepath": "",
        "descript": "",
        "addUser": 0,
        "lastMod": "2010-07-22T20:00:20"
      },
      "name": "Framboise",
      "catId": -1,
      "styleId": -1,
      "abv": 6.0,
      "ibu": 0.0,
      "srm": 0.0,
      "upc": 0,
      "filepath": "",
      "descript": "",
      "addUser": 0,
      "lastMod": "2010-07-22T20:00:20"
    },
    {
      "id": 20,
      "brewery": {
        "id": 483,
        "name": "Egan Brewing",
        "address1": "",
        "address2": "",
        "city": "De Pere",
        "state": "Wisconsin",
        "code": "",
        "country": "United States",
        "phone": "",
        "website": "",
        "filepath": "",
        "descript": "",
        "addUser": 0,
        "lastMod": "2010-07-22T20:00:20"
      },
      "name": "Cow Palace Scotch Ale 1998",
      "catId": 1,
      "styleId": 15,
      "abv": 8.7,
      "ibu": 0.0,
      "srm": 0.0,
      "upc": 0,
      "filepath": "",
      "descript": "",
      "addUser": 0,
      "lastMod": "2010-07-22T20:00:20"
    }
  ],
  "pageable": {
    "pageNumber": 0,
    "pageSize": 20,
    "sort": {
      "sorted": false,
      "unsorted": true,
      "empty": true
    },
    "offset": 0,
    "paged": true,
    "unpaged": false
  },
  "totalPages": 296,
  "totalElements": 5901,
  "last": false,
  "first": true,
  "size": 20,
  "number": 0,
  "sort": {
    "sorted": false,
    "unsorted": true,
    "empty": true
  },
  "numberOfElements": 20,
  "empty": false
}